﻿<?xml version="1.0" encoding="UTF-8"?>
<TestRun id="1f0ecf49-e892-447f-93b6-21c74b673aef" name="SC@SC-PC 2016-02-25 16:09:47" runUser="SC-PC\SC" xmlns="http://microsoft.com/schemas/VisualStudio/TeamTest/2006">
  <TestRunConfiguration name="本地测试运行" id="bdec5ac3-1831-4c7f-9a9b-04f6bc9657ed">
    <Description>这是本地测试运行的默认测试运行配置。</Description>
    <Deployment runDeploymentRoot="F:\QRP\UI\QRPQAT.UI\TestResults\SC_SC-PC 2016-02-25 16_09_47">
      <DeploymentItem filename="F:\QRP\BL\QRPCOM.BL\QRPCOM.BL\bin\Debug\QRPCOM.BL.dll" />
      <DeploymentItem filename="F:\QRP\BL\QRPMAS.BL\QRPMAS.BL.MASQUA\bin\Debug\QRPMAS.BL.MASQUA.dll" />
      <DeploymentItem filename="F:\QRP\UI\QRPCOM.UI\bin\Debug\QRPCOM.UI.dll" />
      <DeploymentItem filename="F:\QRP\BL\QRPQAT.BL\QRPQAT.BL.QATIPA\bin\Debug\QRPQAT.BL.QATIPA.dll" />
      <DeploymentItem filename="F:\QRP\BL\QRPMAS.BL\QRPMAS.BL.MASMAT\bin\Debug\QRPMAS.BL.MASMAT.dll" />
      <DeploymentItem filename="F:\QRP\Browser\bin\Debug\UI\QRPQAT.UI.dll" />
      <DeploymentItem filename="F:\QRP\BL\QRPMAS.BL\QRPMAS.BL.MASGEN\bin\Debug\QRPMAS.BL.MASGEN.dll" />
      <DeploymentItem filename="F:\QRP\Browser\bin\Debug\UI\ARVSPackage.dll" />
      <DeploymentItem filename="F:\QRP\Core\QRPCOM.dll" />
      <DeploymentItem filename="F:\QRP\BL\QRPQAT.BL\QRPQAT.BL.QATVRT\bin\Debug\QRPQAT.BL.QATVRT.dll" />
      <DeploymentItem filename="F:\QRP\Core\QRPSTA.dll" />
      <DeploymentItem filename="F:\QRP\BL\QRPSYS.BL\QRPSYS.BL.SYSPGM\bin\Debug\QRPSYS.BL.SYSPGM.dll" />
      <DeploymentItem filename="F:\QRP\BL\QRPQAT.BL\QRPQAT.BL.QATMSA\bin\Debug\QRPQAT.BL.QATMSA.dll" />
      <DeploymentItem filename="F:\QRP\BL\QRPEQU.BL\QRPEQU.BL.EQUCCS\bin\Debug\QRPEQU.BL.EQUCCS.dll" />
      <DeploymentItem filename="F:\QRP\BL\QRPQAT.BL\QRPQAT.BL.QATREL\bin\Debug\QRPQAT.BL.QATREL.dll" />
      <DeploymentItem filename="F:\QRP\Core\QRPDB.dll" />
      <DeploymentItem filename="F:\QRP\BL\QRPQAT.BL\QRPQAT.BL.QATQUL\bin\Debug\QRPQAT.BL.QATQUL.dll" />
      <DeploymentItem filename="F:\QRP\UserControl\QRPUserControl\bin\Debug\QRPUserControl.dll" />
      <DeploymentItem filename="F:\QRP\UI\QRPMAS.UI\obj\Debug\QRPMAS.UI.dll" />
      <DeploymentItem filename="F:\QRP\BL\QRPMAS.BL\QRPMAS.BL.MASPRC\bin\Debug\QRPMAS.BL.MASPRC.dll" />
      <DeploymentItem filename="F:\QRP\BL\QRPQAT.BL\QRPQAT.BL.QATENV\bin\Debug\QRPQAT.BL.QATENV.dll" />
      <DeploymentItem filename="F:\QRP\BL\QRPQAT.BL\QRPQAT.BL.QATCLM\bin\Debug\QRPQAT.BL.QATCLM.dll" />
      <DeploymentItem filename="F:\QRP\BL\QRPMAS.BL\QRPMAS.BL.MASEQU\bin\Debug\QRPMAS.BL.MASEQU.dll" />
      <DeploymentItem filename="F:\QRP\BL\QRPSYS.BL\QRPSYS.BL.SYSUSR\bin\Debug\QRPSYS.BL.SYSUSR.dll" />
    </Deployment>
    <TestTypeSpecific />
  </TestRunConfiguration>
  <ResultSummary outcome="Aborted">
    <Counters total="1" executed="1" error="0" failed="0" timeout="0" aborted="1" inconclusive="0" passedButRunAborted="0" notRunnable="0" notExecuted="0" disconnected="0" warning="0" passed="0" completed="0" inProgress="0" pending="0" />
    <RunInfos>
      <RunInfo computerName="SC-PC" outcome="Warning" timestamp="2016-02-25T16:09:49.9526199+08:00">
        <Text>警告: 测试运行部署问题: 找不到程序集或模块“QRPDMM.BL.DMMICP”由 测试容器“f:\qrp\ui\qrpqat.ui\frmqatz0022searchtest\bin\debug\frmqatz0022searchtest.dll” 直接或间接引用。</Text>
      </RunInfo>
      <RunInfo computerName="SC-PC" outcome="Warning" timestamp="2016-02-25T16:09:49.9526199+08:00">
        <Text>警告: 测试运行部署问题: 找不到程序集或模块“QRPMAS.BL.MASDMM”由 测试容器“f:\qrp\ui\qrpqat.ui\frmqatz0022searchtest\bin\debug\frmqatz0022searchtest.dll” 直接或间接引用。</Text>
      </RunInfo>
    </RunInfos>
  </ResultSummary>
  <Times creation="2016-02-25T16:09:47.8655006+08:00" queuing="2016-02-25T16:09:49.9716210+08:00" start="2016-02-25T16:09:50.1856333+08:00" finish="2016-02-25T16:11:27.7162117+08:00" />
  <TestDefinitions>
    <UnitTest name="mfSearchTest" storage="f:\qrp\ui\qrpqat.ui\frmqatz0022searchtest\bin\debug\frmqatz0022searchtest.dll" id="b7beb248-76a6-69e1-bb64-7374cde952eb">
      <Css projectStructure="" iteration="" />
      <Owners>
        <Owner name="" />
      </Owners>
      <Execution id="392073f6-f297-4389-8bbe-d76d02e71820" />
      <TestMethod codeBase="F:\QRP\UI\QRPQAT.UI\frmQATZ0022SearchTest\bin\Debug\frmQATZ0022SearchTest.dll" adapterTypeName="Microsoft.VisualStudio.TestTools.TestTypes.Unit.UnitTestAdapter, Microsoft.VisualStudio.QualityTools.Tips.UnitTest.Adapter, Version=9.0.0.0, Culture=neutral, PublicKeyToken=b03f5f7f11d50a3a" className="frmQATZ0022SearchTest.frmQATZ0022Test, frmQATZ0022SearchTest" name="mfSearchTest" />
    </UnitTest>
  </TestDefinitions>
  <TestLists>
    <TestList name="列表中未列出的结果" id="8c84fa94-04c1-424b-9868-57a2d4851a1d" />
    <TestList name="所有已加载的结果" id="19431567-8539-422a-85d7-44ee4e166bda" />
  </TestLists>
  <TestEntries>
    <TestEntry testId="b7beb248-76a6-69e1-bb64-7374cde952eb" executionId="392073f6-f297-4389-8bbe-d76d02e71820" testListId="8c84fa94-04c1-424b-9868-57a2d4851a1d" />
  </TestEntries>
  <Results>
    <UnitTestResult executionId="392073f6-f297-4389-8bbe-d76d02e71820" testId="b7beb248-76a6-69e1-bb64-7374cde952eb" testName="mfSearchTest" computerName="SC-PC" duration="00:01:21.3306518" startTime="2016-02-25T16:09:50.2456367+08:00" endTime="2016-02-25T16:11:11.5762885+08:00" testType="13cdc9d9-ddb5-4fa4-a97d-d965ccfc6d4b" outcome="Aborted" testListId="8c84fa94-04c1-424b-9868-57a2d4851a1d">
      <Output>
        <ErrorInfo>
          <Message>用户中止了测试运行。</Message>
        </ErrorInfo>
      </Output>
    </UnitTestResult>
  </Results>
</TestRun>